[gd_scene load_steps=2 format=3 uid="uid://blke2t0nuvpi1"]

[ext_resource type="Script" path="res://src/input_buffer.gd" id="1_rfhna"]

[node name="InputBuffer" type="Control"]
layout_mode = 3
anchors_preset = 15
anchor_right = 1.0
anchor_bottom = 1.0
grow_horizontal = 2
grow_vertical = 2
script = ExtResource("1_rfhna")

[node name="CanvasLayer" type="CanvasLayer" parent="."]

[node name="CCW" type="Button" parent="CanvasLayer"]
offset_left = 883.0
offset_top = 311.0
offset_right = 927.0
offset_bottom = 342.0
text = "CCW"

[node name="CW" type="Button" parent="CanvasLayer"]
offset_left = 873.0
offset_top = 111.0
offset_right = 907.0
offset_bottom = 142.0
text = "CW"

[node name="Burn" type="Button" parent="CanvasLayer"]
offset_left = 50.0
offset_top = 158.0
offset_right = 96.0
offset_bottom = 189.0
text = "Burn"

[connection signal="toggled" from="CanvasLayer/CCW" to="." method="_on_ccw_toggled"]
[connection signal="toggled" from="CanvasLayer/CW" to="." method="_on_cw_toggled"]
[connection signal="toggled" from="CanvasLayer/Burn" to="." method="_on_burn_toggled"]
