[gd_scene load_steps=2 format=2]

[ext_resource path="res://assets/lander.png" type="Texture" id=1]

[node name="Control" type="Control"]
anchor_right = 1.0
anchor_bottom = 1.0
rect_min_size = Vector2( 128, 128 )
__meta__ = {
"_edit_use_anchors_": false
}

[node name="TextureRect" type="TextureRect" parent="."]
anchor_left = 1.0
anchor_right = 1.0
margin_left = -401.0
margin_top = 4.0
margin_right = -9.0
margin_bottom = 132.0
stretch_mode = 3
__meta__ = {
"_edit_use_anchors_": false
}

[node name="lander" type="Sprite" parent="TextureRect"]
position = Vector2( 317.59, 69.9848 )
texture = ExtResource( 1 )
hframes = 4

[node name="velocity_vec" type="Line2D" parent="TextureRect"]
position = Vector2( 200, 55 )
points = PoolVector2Array( 1, 0, 1, 32 )
default_color = Color( 0.4, 0.956863, 1, 1 )
begin_cap_mode = 1
end_cap_mode = 2
